…
#### Example 2: Use English (or German or French or Italian) labels

Add english labels to the dataset:

``` r
mylang <- "en"  # "de", "fr", "it"
translation_tbl <-
  enframe(
    sapply(meta$labels$idx_type, function(e) e[[mylang]]),
    name = "idx_type",
    value = "label"
  )
left_join(data, translation_tbl, by = "idx_type")
#> # A tibble: 304 x 4
#>    idx_type date       value label                   
#>    <chr>    <date>     <dbl> <chr>                   
#>  1 sch      2003-03-01  31.9 All                     
#>  2 pzua     2003-03-01  12.9 Newspaper               
#>  3 ins      2003-03-01   4.9 Online job posting sites
#>  4 unw      2003-03-01  14.2 Company websites        
#>  5 sch      2004-03-01  36.4 All                     
#>  6 pzua     2004-03-01  12.2 Newspaper               
#>  7 ins      2004-03-01   7.7 Online job posting sites
#>  8 unw      2004-03-01  16.4 Company websites        
#>  9 sch      2005-03-01  39.1 All                     
#> 10 pzua     2005-03-01  10.3 Newspaper               
#> # … with 294 more rows
```
…
